<?xml version="1.0" encoding="UTF-8" ?>
<!DOCTYPE svg PUBLIC "-//W3C//DTD SVG 1.1//EN" "http://www.w3.org/Graphics/SVG/1.1/DTD/svg11.dtd">
<svg width="501pt" height="105pt" viewBox="0 0 501 105" version="1.1" xmlns="http://www.w3.org/2000/svg">
<g id="#ffffffff">
<path fill="#ffffff" opacity="1.00" d=" M 0.00 0.00 L 501.00 0.00 L 501.00 105.00 L 0.00 105.00 L 0.00 0.00 M 3.38 3.37 C 3.37 18.27 3.37 33.16 3.37 48.05 C 13.29 48.06 23.22 48.08 33.14 48.05 C 37.82 36.72 50.31 30.69 62.03 30.09 C 71.93 29.54 82.57 32.07 89.83 39.17 C 93.64 42.96 96.58 48.35 95.76 53.86 C 94.93 56.69 91.36 56.47 88.99 56.66 C 60.45 56.72 31.92 56.67 3.39 56.68 C 3.36 71.66 3.38 86.64 3.37 101.63 C 36.39 101.63 69.40 101.64 102.42 101.62 C 234.13 101.64 365.85 101.62 497.56 101.63 C 497.56 68.88 497.56 36.12 497.56 3.37 C 365.85 3.38 234.14 3.36 102.42 3.38 C 69.41 3.36 36.39 3.37 3.38 3.37 M 38.31 48.26 C 41.21 48.41 41.85 45.19 43.57 43.54 C 51.15 35.28 63.76 33.62 74.15 36.57 C 80.85 38.63 87.76 43.52 89.05 50.83 C 84.74 51.63 80.35 51.34 75.99 51.37 C 51.74 51.40 27.48 51.32 3.23 51.41 C 3.30 51.86 3.45 52.78 3.53 53.23 C 28.67 53.13 53.82 53.21 78.96 53.19 C 82.31 53.14 85.70 53.40 89.02 52.84 C 90.37 52.71 91.17 51.31 90.87 50.03 C 90.21 45.88 87.29 42.48 84.18 39.85 C 76.40 33.44 65.49 32.21 55.90 34.32 C 48.31 35.94 41.34 40.99 38.31 48.26 M 45.71 48.02 C 55.83 48.13 65.94 48.01 76.06 48.09 C 78.41 48.07 80.87 48.27 83.06 47.21 C 79.70 41.18 72.48 38.81 65.95 38.68 C 58.33 38.48 49.94 41.30 45.71 48.02 Z" />
<path fill="#ffffff" opacity="1.00" d=" M 374.44 21.73 C 378.47 20.31 385.78 21.53 385.82 26.85 C 383.71 32.70 374.23 32.78 370.65 28.27 C 368.71 25.43 371.75 22.40 374.44 21.73 Z" />
<path fill="#ffffff" opacity="1.00" d=" M 158.75 27.19 C 162.85 27.18 166.95 27.18 171.06 27.19 C 171.06 30.31 171.06 33.44 171.07 36.57 C 175.36 36.56 179.65 36.56 183.94 36.56 C 183.94 38.98 183.94 41.39 183.95 43.81 C 179.64 43.82 175.34 43.80 171.04 43.84 C 171.26 49.81 170.68 55.82 171.34 61.77 C 173.39 66.59 179.97 65.08 184.00 64.20 C 183.94 66.56 183.94 68.92 183.94 71.28 C 177.80 72.61 171.23 72.92 165.15 71.12 C 161.55 70.15 159.03 66.73 158.91 63.05 C 158.54 56.65 158.85 50.23 158.75 43.82 C 156.06 43.81 153.37 43.82 150.68 43.81 C 150.69 41.39 150.69 38.98 150.69 36.56 C 153.37 36.56 156.06 36.56 158.74 36.56 C 158.75 33.44 158.75 30.32 158.75 27.19 Z" />
<path fill="#ffffff" opacity="1.00" d=" M 194.21 40.26 C 201.58 35.44 210.87 34.35 219.44 35.69 C 224.43 36.55 229.48 38.25 233.33 41.67 C 236.92 45.01 239.32 49.98 238.83 54.95 C 238.71 56.30 237.34 57.09 236.08 56.97 C 223.30 57.05 210.52 57.00 197.74 57.13 C 200.64 63.64 208.71 64.99 215.09 64.67 C 218.80 64.72 222.11 63.01 225.39 61.53 C 229.38 61.11 233.42 61.44 237.42 61.50 C 234.27 67.51 227.52 70.55 221.13 71.67 C 212.14 73.12 202.35 72.45 194.40 67.69 C 189.28 64.72 185.56 59.00 186.02 52.96 C 186.29 47.64 189.86 43.05 194.21 40.26 M 197.11 50.12 C 207.27 50.17 217.43 50.33 227.58 50.04 C 226.59 46.98 223.76 45.07 220.91 43.92 C 212.79 40.89 202.24 42.66 197.11 50.12 Z" />
<path fill="#ffffff" opacity="1.00" d=" M 447.40 38.41 C 456.65 34.12 467.72 34.14 477.15 37.90 C 483.06 40.18 487.84 45.52 488.69 51.89 C 488.82 53.44 489.22 55.55 487.71 56.58 C 486.26 57.27 484.57 56.91 483.03 57.02 C 471.25 56.97 459.46 57.07 447.68 57.11 C 450.50 63.69 458.70 64.99 465.07 64.67 C 468.74 64.73 471.99 62.99 475.25 61.55 C 479.30 61.17 483.42 61.25 487.48 61.69 C 483.72 67.64 476.93 70.91 470.13 71.81 C 461.21 73.09 451.50 72.27 443.75 67.33 C 438.59 64.16 435.10 58.04 436.03 51.91 C 436.86 45.67 441.94 40.96 447.40 38.41 M 447.02 50.13 C 457.18 50.16 467.35 50.34 477.50 50.03 C 476.44 46.82 473.39 44.88 470.38 43.76 C 462.33 40.97 452.05 42.77 447.02 50.13 Z" />
<path fill="#ffffff" opacity="1.00" d=" M 114.45 40.47 C 121.22 35.14 130.71 34.79 138.63 37.47 C 143.32 39.02 147.50 43.14 147.57 48.32 C 147.75 55.98 147.57 63.65 147.62 71.32 C 143.54 71.31 139.46 71.31 135.38 71.32 C 135.29 64.53 135.50 57.73 135.32 50.94 C 135.39 48.26 133.88 45.65 131.41 44.56 C 127.82 42.96 123.59 42.91 119.85 43.98 C 116.66 44.88 114.79 48.08 114.64 51.24 C 114.28 57.92 114.61 64.62 114.50 71.31 C 110.47 71.31 106.44 71.30 102.40 71.34 C 102.36 59.80 102.37 48.26 102.40 36.71 C 106.44 36.76 110.48 36.75 114.52 36.75 C 114.49 37.99 114.48 39.23 114.45 40.47 Z" />
<path fill="#ffffff" opacity="1.00" d=" M 255.87 42.17 C 261.00 37.74 267.82 34.85 274.68 36.40 C 274.69 39.20 274.68 42.00 274.72 44.80 C 269.87 44.10 264.56 43.73 260.10 46.14 C 257.26 47.64 255.85 50.90 255.92 54.02 C 255.79 59.83 255.93 65.64 255.87 71.44 C 251.79 71.44 247.70 71.44 243.62 71.43 C 243.63 59.91 243.62 48.40 243.63 36.88 C 247.71 36.87 251.79 36.87 255.87 36.87 C 255.88 38.64 255.87 40.41 255.87 42.17 Z" />
<path fill="#ffffff" opacity="1.00" d=" M 290.92 40.35 C 298.50 34.94 308.67 34.80 317.18 37.90 C 321.86 39.69 326.29 42.84 328.56 47.42 C 331.59 53.48 329.95 61.37 324.88 65.84 C 319.02 71.14 310.68 72.64 303.02 72.22 C 298.55 72.03 294.47 69.95 290.93 67.37 C 290.96 73.95 290.94 80.54 290.94 87.12 C 287.19 87.13 283.44 87.13 279.69 87.12 C 279.69 70.33 279.68 53.54 279.69 36.75 C 283.44 36.75 287.19 36.75 290.94 36.75 C 290.94 37.65 290.93 39.45 290.92 40.35 M 299.38 43.58 C 293.43 44.73 289.20 51.36 291.55 57.16 C 294.78 65.14 305.77 66.29 312.64 62.69 C 317.99 60.10 319.80 52.56 316.16 47.86 C 312.32 42.84 305.12 42.16 299.38 43.58 Z" />
<path fill="#ffffff" opacity="1.00" d=" M 347.68 42.19 C 352.80 37.73 359.64 34.86 366.49 36.40 C 366.50 39.19 366.49 41.99 366.53 44.79 C 361.94 44.14 357.02 43.79 352.68 45.74 C 349.85 46.96 347.92 49.85 347.81 52.92 C 347.51 59.09 347.78 65.27 347.69 71.44 C 343.60 71.44 339.52 71.44 335.44 71.44 C 335.43 59.92 335.44 48.40 335.43 36.88 C 339.52 36.87 343.60 36.87 347.69 36.88 C 347.69 38.65 347.68 40.42 347.68 42.19 Z" />
<path fill="#ffffff" opacity="1.00" d=" M 392.75 41.79 C 396.33 37.84 401.95 36.76 406.99 36.04 C 415.28 35.16 424.81 35.85 430.97 42.17 C 427.91 43.71 424.82 45.20 421.73 46.69 C 417.29 43.15 410.69 41.90 405.55 44.59 C 403.32 45.86 405.12 48.54 407.06 48.95 C 414.51 51.38 423.14 50.50 429.84 55.11 C 433.76 57.63 434.23 63.72 430.88 66.91 C 426.97 70.72 421.32 71.86 416.09 72.49 C 406.84 73.46 396.39 72.78 389.32 65.97 C 392.33 64.35 395.34 62.75 398.37 61.18 C 403.99 65.38 412.16 67.01 418.45 63.39 C 420.75 62.10 418.77 59.51 416.91 59.10 C 409.43 56.53 400.72 57.60 393.98 52.89 C 390.33 50.50 389.84 44.94 392.75 41.79 Z" />
<path fill="#ffffff" opacity="1.00" d=" M 371.75 36.75 C 375.87 36.75 380.00 36.75 384.12 36.75 C 384.12 48.38 384.13 60.00 384.12 71.63 C 379.99 71.63 375.87 71.63 371.75 71.62 C 371.75 60.00 371.74 48.37 371.75 36.75 Z" />
<path fill="#ffffff" opacity="1.00" d=" M 33.90 58.79 C 35.73 58.76 37.56 58.75 39.38 58.73 C 44.32 67.27 54.50 71.36 64.03 71.36 C 72.41 71.33 81.63 69.36 87.33 62.71 C 89.33 62.69 91.33 62.70 93.33 62.72 C 87.16 71.97 75.60 75.31 65.00 75.08 C 52.88 75.39 39.39 70.31 33.90 58.79 Z" />
<path fill="#ffffff" opacity="1.00" d=" M 41.41 58.72 C 43.29 58.74 45.17 58.74 47.06 58.79 C 54.98 66.86 68.14 67.62 77.99 62.91 C 80.28 62.45 82.63 62.71 84.94 62.69 C 77.67 69.08 67.26 70.49 58.00 68.90 C 51.41 67.80 45.28 64.21 41.41 58.72 Z" />
<path fill="#ffffff" opacity="1.00" d=" M 381.76 77.63 C 383.35 77.62 384.95 77.62 386.56 77.62 C 386.56 78.83 386.56 80.04 386.57 81.24 C 388.24 81.25 389.89 81.25 391.56 81.25 C 391.56 81.97 391.56 83.40 391.56 84.12 C 389.88 84.12 388.22 84.13 386.56 84.14 C 386.59 86.49 386.37 88.87 386.77 91.20 C 387.63 92.95 390.10 91.96 391.67 92.21 C 391.62 92.89 391.53 94.25 391.48 94.93 C 388.40 95.01 384.04 96.06 382.13 92.91 C 381.45 90.04 381.81 87.05 381.76 84.13 C 380.44 84.13 379.13 84.12 377.82 84.12 C 377.81 83.40 377.81 81.97 377.81 81.25 C 379.11 81.25 380.42 81.25 381.74 81.25 C 381.74 80.04 381.75 78.83 381.76 77.63 Z" />
<path fill="#ffffff" opacity="1.00" d=" M 328.31 83.19 C 330.48 81.76 332.90 80.77 335.56 80.89 C 335.59 81.74 335.64 83.43 335.67 84.28 C 333.20 84.30 329.31 83.80 328.51 86.96 C 328.23 89.56 328.39 92.19 328.38 94.81 C 326.77 94.81 325.16 94.81 323.56 94.82 C 323.56 90.32 323.56 85.81 323.56 81.31 C 325.17 81.31 326.77 81.31 328.39 81.31 L 328.31 83.19 Z" />
<path fill="#ffffff" opacity="1.00" d=" M 341.76 81.82 C 345.71 80.41 350.47 80.58 354.04 82.93 C 356.08 84.25 356.61 86.74 357.00 88.97 C 351.65 89.74 346.22 89.02 340.85 89.44 C 344.83 94.71 351.23 90.26 356.42 90.98 C 353.50 95.13 347.86 95.71 343.25 94.77 C 340.30 94.13 337.17 92.23 336.65 89.02 C 336.00 85.67 338.82 82.85 341.76 81.82 M 340.65 86.59 C 344.64 86.74 348.63 86.75 352.62 86.57 C 349.82 82.59 343.65 83.14 340.65 86.59 Z" />
<path fill="#ffffff" opacity="1.00" d=" M 363.72 82.58 C 367.50 80.39 373.47 80.04 376.14 84.05 C 377.14 87.52 376.43 91.24 376.62 94.81 C 375.01 94.81 373.40 94.81 371.80 94.81 C 371.64 91.71 372.24 88.47 371.45 85.44 C 369.78 83.21 365.07 83.16 364.01 86.02 C 363.53 88.92 363.79 91.88 363.76 94.81 C 362.15 94.81 360.54 94.81 358.94 94.82 C 358.93 90.32 358.93 85.82 358.94 81.32 C 360.51 81.31 362.09 81.29 363.67 81.28 L 363.72 82.58 Z" />
<path fill="#ffffff" opacity="1.00" d=" M 405.16 83.26 C 409.58 80.81 415.64 80.04 420.02 82.91 C 422.87 86.12 421.08 90.94 421.56 94.84 C 419.85 94.55 417.05 95.75 416.70 93.31 C 413.55 95.86 408.75 95.72 405.41 93.65 C 403.55 92.50 403.63 89.54 405.44 88.38 C 408.96 86.14 413.38 86.72 417.37 86.41 C 415.82 82.52 410.80 83.56 407.81 84.97 C 407.15 84.54 405.83 83.68 405.16 83.26 M 409.03 90.16 C 408.64 92.84 412.12 92.69 413.92 92.51 C 415.87 92.49 416.63 90.60 417.18 89.05 C 414.44 88.90 411.46 88.66 409.03 90.16 Z" />
<path fill="#ffffff" opacity="1.00" d=" M 437.83 83.88 C 442.30 80.33 448.87 80.42 453.77 83.04 C 452.63 83.84 451.50 84.64 450.36 85.42 C 447.56 83.85 443.54 83.61 441.37 86.34 C 439.89 88.24 441.37 90.82 443.39 91.53 C 445.71 92.63 448.27 91.93 450.52 91.04 C 451.58 91.80 452.64 92.56 453.70 93.33 C 448.76 95.88 442.12 95.98 437.71 92.32 C 435.15 90.21 435.23 85.92 437.83 83.88 Z" />
<path fill="#ffffff" opacity="1.00" d=" M 455.85 83.19 C 460.38 80.86 466.59 79.93 470.91 83.11 C 473.40 86.40 471.80 90.99 472.24 94.81 C 470.71 94.81 469.19 94.82 467.68 94.82 C 467.71 94.42 467.76 93.62 467.79 93.22 C 464.50 95.63 459.80 95.85 456.30 93.80 C 454.16 92.68 454.23 89.37 456.32 88.23 C 459.87 86.17 464.19 86.73 468.13 86.34 C 466.32 82.56 461.47 83.58 458.37 84.98 C 457.74 84.53 456.48 83.64 455.85 83.19 M 460.47 89.77 C 459.52 90.13 459.41 91.18 460.14 91.83 C 462.86 93.50 467.76 92.77 467.66 88.81 C 465.28 89.04 462.68 88.69 460.47 89.77 Z" />
<path fill="#ffffff" opacity="1.00" d=" M 480.12 83.21 C 482.30 81.74 484.76 80.77 487.44 80.91 C 487.46 81.75 487.51 83.45 487.54 84.30 C 485.20 84.36 482.12 83.80 480.64 86.11 C 479.82 88.93 480.27 91.92 480.19 94.82 C 478.60 94.82 477.02 94.82 475.44 94.82 C 475.43 90.32 475.43 85.81 475.44 81.31 C 477.01 81.31 478.60 81.31 480.19 81.31 L 480.12 83.21 Z" />
<path fill="#ffffff" opacity="1.00" d=" M 392.50 86.56 C 395.87 86.56 399.24 86.56 402.62 86.56 C 402.62 87.52 402.62 88.48 402.62 89.44 C 399.24 89.44 395.87 89.44 392.50 89.44 C 392.50 88.72 392.50 87.28 392.50 86.56 Z" />
<path fill="#ffffff" opacity="1.00" d=" M 423.81 86.56 C 427.19 86.56 430.56 86.56 433.94 86.56 C 433.94 87.28 433.94 88.72 433.94 89.44 C 430.56 89.44 427.19 89.44 423.81 89.44 C 423.81 88.72 423.81 87.28 423.81 86.56 Z" />
</g>
<g id="#00a665ff">
<path fill="#00a665" opacity="1.00" d=" M 3.38 3.37 C 36.39 3.37 69.41 3.36 102.42 3.38 C 102.49 14.49 102.51 25.60 102.40 36.71 C 102.37 48.26 102.36 59.80 102.40 71.34 C 102.51 81.44 102.49 91.53 102.42 101.62 C 69.40 101.64 36.39 101.63 3.37 101.63 C 3.38 86.64 3.36 71.66 3.39 56.68 C 31.92 56.67 60.45 56.72 88.99 56.66 C 91.36 56.47 94.93 56.69 95.76 53.86 C 96.58 48.35 93.64 42.96 89.83 39.17 C 82.57 32.07 71.93 29.54 62.03 30.09 C 50.31 30.69 37.82 36.72 33.14 48.05 C 23.22 48.08 13.29 48.06 3.37 48.05 C 3.37 33.16 3.37 18.27 3.38 3.37 M 33.90 58.79 C 39.39 70.31 52.88 75.39 65.00 75.08 C 75.60 75.31 87.16 71.97 93.33 62.72 C 91.33 62.70 89.33 62.69 87.33 62.71 C 81.63 69.36 72.41 71.33 64.03 71.36 C 54.50 71.36 44.32 67.27 39.38 58.73 C 37.56 58.75 35.73 58.76 33.90 58.79 M 41.41 58.72 C 45.28 64.21 51.41 67.80 58.00 68.90 C 67.26 70.49 77.67 69.08 84.94 62.69 C 82.63 62.71 80.28 62.45 77.99 62.91 C 68.14 67.62 54.98 66.86 47.06 58.79 C 45.17 58.74 43.29 58.74 41.41 58.72 Z" />
<path fill="#00a665" opacity="1.00" d=" M 38.31 48.26 C 41.34 40.99 48.31 35.94 55.90 34.32 C 65.49 32.21 76.40 33.44 84.18 39.85 C 87.29 42.48 90.21 45.88 90.87 50.03 C 91.17 51.31 90.37 52.71 89.02 52.84 C 85.70 53.40 82.31 53.14 78.96 53.19 C 53.82 53.21 28.67 53.13 3.53 53.23 C 3.45 52.78 3.30 51.86 3.23 51.41 C 27.48 51.32 51.74 51.40 75.99 51.37 C 80.35 51.34 84.74 51.63 89.05 50.83 C 87.76 43.52 80.85 38.63 74.15 36.57 C 63.76 33.62 51.15 35.28 43.57 43.54 C 41.85 45.19 41.21 48.41 38.31 48.26 Z" />
<path fill="#00a665" opacity="1.00" d=" M 45.71 48.02 C 49.94 41.30 58.33 38.48 65.95 38.68 C 72.48 38.81 79.70 41.18 83.06 47.21 C 80.87 48.27 78.41 48.07 76.06 48.09 C 65.94 48.01 55.83 48.13 45.71 48.02 Z" />
</g>
<g id="#231f20ff">
<path fill="#231f20" opacity="1.00" d=" M 102.42 3.38 C 234.14 3.36 365.85 3.38 497.56 3.37 C 497.56 36.12 497.56 68.88 497.56 101.63 C 365.85 101.62 234.13 101.64 102.42 101.62 C 102.49 91.53 102.51 81.44 102.40 71.34 C 106.44 71.30 110.47 71.31 114.50 71.31 C 114.61 64.62 114.28 57.92 114.64 51.24 C 114.79 48.08 116.66 44.88 119.85 43.98 C 123.59 42.91 127.82 42.96 131.41 44.56 C 133.88 45.65 135.39 48.26 135.32 50.94 C 135.50 57.73 135.29 64.53 135.38 71.32 C 139.46 71.31 143.54 71.31 147.62 71.32 C 147.57 63.65 147.75 55.98 147.57 48.32 C 147.50 43.14 143.32 39.02 138.63 37.47 C 130.71 34.79 121.22 35.14 114.45 40.47 C 114.48 39.23 114.49 37.99 114.52 36.75 C 110.48 36.75 106.44 36.76 102.40 36.71 C 102.51 25.60 102.49 14.49 102.42 3.38 M 374.44 21.73 C 371.75 22.40 368.71 25.43 370.65 28.27 C 374.23 32.78 383.71 32.70 385.82 26.85 C 385.78 21.53 378.47 20.31 374.44 21.73 M 158.75 27.19 C 158.75 30.32 158.75 33.44 158.74 36.56 C 156.06 36.56 153.37 36.56 150.69 36.56 C 150.69 38.98 150.69 41.39 150.68 43.81 C 153.37 43.82 156.06 43.81 158.75 43.82 C 158.85 50.23 158.54 56.65 158.91 63.05 C 159.03 66.73 161.55 70.15 165.15 71.12 C 171.23 72.92 177.80 72.61 183.94 71.28 C 183.94 68.92 183.94 66.56 184.00 64.20 C 179.97 65.08 173.39 66.59 171.34 61.77 C 170.68 55.82 171.26 49.81 171.04 43.84 C 175.34 43.80 179.64 43.82 183.95 43.81 C 183.94 41.39 183.94 38.98 183.94 36.56 C 179.65 36.56 175.36 36.56 171.07 36.57 C 171.06 33.44 171.06 30.31 171.06 27.19 C 166.95 27.18 162.85 27.18 158.75 27.19 M 194.21 40.26 C 189.86 43.05 186.29 47.64 186.02 52.96 C 185.56 59.00 189.28 64.72 194.40 67.69 C 202.35 72.45 212.14 73.12 221.13 71.67 C 227.52 70.55 234.27 67.51 237.42 61.50 C 233.42 61.44 229.38 61.11 225.39 61.53 C 222.11 63.01 218.80 64.72 215.09 64.67 C 208.71 64.99 200.64 63.64 197.74 57.13 C 210.52 57.00 223.30 57.05 236.08 56.97 C 237.34 57.09 238.71 56.30 238.83 54.95 C 239.32 49.98 236.92 45.01 233.33 41.67 C 229.48 38.25 224.43 36.55 219.44 35.69 C 210.87 34.35 201.58 35.44 194.21 40.26 M 447.40 38.41 C 441.94 40.96 436.86 45.67 436.03 51.91 C 435.10 58.04 438.59 64.16 443.75 67.33 C 451.50 72.27 461.21 73.09 470.13 71.81 C 476.93 70.91 483.72 67.64 487.48 61.69 C 483.42 61.25 479.30 61.17 475.25 61.55 C 471.99 62.99 468.74 64.73 465.07 64.67 C 458.70 64.99 450.50 63.69 447.68 57.11 C 459.46 57.07 471.25 56.97 483.03 57.02 C 484.57 56.91 486.26 57.27 487.71 56.58 C 489.22 55.55 488.82 53.44 488.69 51.89 C 487.84 45.52 483.06 40.18 477.15 37.90 C 467.72 34.14 456.65 34.12 447.40 38.41 M 255.87 42.17 C 255.87 40.41 255.88 38.64 255.87 36.87 C 251.79 36.87 247.71 36.87 243.63 36.88 C 243.62 48.40 243.63 59.91 243.62 71.43 C 247.70 71.44 251.79 71.44 255.87 71.44 C 255.93 65.64 255.79 59.83 255.92 54.02 C 255.85 50.90 257.26 47.64 260.10 46.14 C 264.56 43.73 269.87 44.10 274.72 44.80 C 274.68 42.00 274.69 39.20 274.68 36.40 C 267.82 34.85 261.00 37.74 255.87 42.17 M 290.92 40.35 C 290.93 39.45 290.94 37.65 290.94 36.75 C 287.19 36.75 283.44 36.75 279.69 36.75 C 279.68 53.54 279.69 70.33 279.69 87.12 C 283.44 87.13 287.19 87.13 290.94 87.12 C 290.94 80.54 290.96 73.95 290.93 67.37 C 294.47 69.95 298.55 72.03 303.02 72.22 C 310.68 72.64 319.02 71.14 324.88 65.84 C 329.95 61.37 331.59 53.48 328.56 47.42 C 326.29 42.84 321.86 39.69 317.18 37.90 C 308.67 34.80 298.50 34.94 290.92 40.35 M 347.68 42.19 C 347.68 40.42 347.69 38.65 347.69 36.88 C 343.60 36.87 339.52 36.87 335.43 36.88 C 335.44 48.40 335.43 59.92 335.44 71.44 C 339.52 71.44 343.60 71.44 347.69 71.44 C 347.78 65.27 347.51 59.09 347.81 52.92 C 347.92 49.85 349.85 46.96 352.68 45.74 C 357.02 43.79 361.94 44.14 366.53 44.79 C 366.49 41.99 366.50 39.19 366.49 36.40 C 359.64 34.86 352.80 37.73 347.68 42.19 M 392.75 41.79 C 389.84 44.94 390.33 50.50 393.98 52.89 C 400.72 57.60 409.43 56.53 416.91 59.10 C 418.77 59.51 420.75 62.10 418.45 63.39 C 412.16 67.01 403.99 65.38 398.37 61.18 C 395.34 62.75 392.33 64.35 389.32 65.97 C 396.39 72.78 406.84 73.46 416.09 72.49 C 421.32 71.86 426.97 70.72 430.88 66.91 C 434.23 63.72 433.76 57.63 429.84 55.11 C 423.14 50.50 414.51 51.38 407.06 48.95 C 405.12 48.54 403.32 45.86 405.55 44.59 C 410.69 41.90 417.29 43.15 421.73 46.69 C 424.82 45.20 427.91 43.71 430.97 42.17 C 424.81 35.85 415.28 35.16 406.99 36.04 C 401.95 36.76 396.33 37.84 392.75 41.79 M 371.75 36.75 C 371.74 48.37 371.75 60.00 371.75 71.62 C 375.87 71.63 379.99 71.63 384.12 71.63 C 384.13 60.00 384.12 48.38 384.12 36.75 C 380.00 36.75 375.87 36.75 371.75 36.75 M 381.76 77.63 C 381.75 78.83 381.74 80.04 381.74 81.25 C 380.42 81.25 379.11 81.25 377.81 81.25 C 377.81 81.97 377.81 83.40 377.82 84.12 C 379.13 84.12 380.44 84.13 381.76 84.13 C 381.81 87.05 381.45 90.04 382.13 92.91 C 384.04 96.06 388.40 95.01 391.48 94.93 C 391.53 94.25 391.62 92.89 391.67 92.21 C 390.10 91.96 387.63 92.95 386.77 91.20 C 386.37 88.87 386.59 86.49 386.56 84.14 C 388.22 84.13 389.88 84.12 391.56 84.12 C 391.56 83.40 391.56 81.97 391.56 81.25 C 389.89 81.25 388.24 81.25 386.57 81.24 C 386.56 80.04 386.56 78.83 386.56 77.62 C 384.95 77.62 383.35 77.62 381.76 77.63 M 328.31 83.19 L 328.39 81.31 C 326.77 81.31 325.17 81.31 323.56 81.31 C 323.56 85.81 323.56 90.32 323.56 94.82 C 325.16 94.81 326.77 94.81 328.38 94.81 C 328.39 92.19 328.23 89.56 328.51 86.96 C 329.31 83.80 333.20 84.30 335.67 84.28 C 335.64 83.43 335.59 81.74 335.56 80.89 C 332.90 80.77 330.48 81.76 328.31 83.19 M 341.76 81.82 C 338.82 82.85 336.00 85.67 336.65 89.02 C 337.17 92.23 340.30 94.13 343.25 94.77 C 347.86 95.71 353.50 95.13 356.42 90.98 C 351.23 90.26 344.83 94.71 340.85 89.44 C 346.22 89.02 351.65 89.74 357.00 88.97 C 356.61 86.74 356.08 84.25 354.04 82.93 C 350.47 80.58 345.71 80.41 341.76 81.82 M 363.72 82.58 L 363.67 81.28 C 362.09 81.29 360.51 81.31 358.94 81.32 C 358.93 85.82 358.93 90.32 358.94 94.82 C 360.54 94.81 362.15 94.81 363.76 94.81 C 363.79 91.88 363.53 88.92 364.01 86.02 C 365.07 83.16 369.78 83.21 371.45 85.44 C 372.24 88.47 371.64 91.71 371.80 94.81 C 373.40 94.81 375.01 94.81 376.62 94.81 C 376.43 91.24 377.14 87.52 376.14 84.05 C 373.47 80.04 367.50 80.39 363.72 82.58 M 405.16 83.26 C 405.83 83.68 407.15 84.54 407.81 84.97 C 410.80 83.56 415.82 82.52 417.37 86.41 C 413.38 86.72 408.96 86.14 405.44 88.38 C 403.63 89.54 403.55 92.50 405.41 93.65 C 408.75 95.72 413.55 95.86 416.70 93.31 C 417.05 95.75 419.85 94.55 421.56 94.84 C 421.08 90.94 422.87 86.12 420.02 82.91 C 415.64 80.04 409.58 80.81 405.16 83.26 M 437.83 83.88 C 435.23 85.92 435.15 90.21 437.71 92.32 C 442.12 95.98 448.76 95.88 453.70 93.33 C 452.64 92.56 451.58 91.80 450.52 91.04 C 448.27 91.93 445.71 92.63 443.39 91.53 C 441.37 90.82 439.89 88.24 441.37 86.34 C 443.54 83.61 447.56 83.85 450.36 85.42 C 451.50 84.64 452.63 83.84 453.77 83.04 C 448.87 80.42 442.30 80.33 437.83 83.88 M 455.85 83.19 C 456.48 83.64 457.74 84.53 458.37 84.98 C 461.47 83.58 466.32 82.56 468.13 86.34 C 464.19 86.73 459.87 86.17 456.32 88.23 C 454.23 89.37 454.16 92.68 456.30 93.80 C 459.80 95.85 464.50 95.63 467.79 93.22 C 467.76 93.62 467.71 94.42 467.68 94.82 C 469.19 94.82 470.71 94.81 472.24 94.81 C 471.80 90.99 473.40 86.40 470.91 83.11 C 466.59 79.93 460.38 80.86 455.85 83.19 M 480.12 83.21 L 480.19 81.31 C 478.60 81.31 477.01 81.31 475.44 81.31 C 475.43 85.81 475.43 90.32 475.44 94.82 C 477.02 94.82 478.60 94.82 480.19 94.82 C 480.27 91.92 479.82 88.93 480.64 86.11 C 482.12 83.80 485.20 84.36 487.54 84.30 C 487.51 83.45 487.46 81.75 487.44 80.91 C 484.76 80.77 482.30 81.74 480.12 83.21 M 392.50 86.56 C 392.50 87.28 392.50 88.72 392.50 89.44 C 395.87 89.44 399.24 89.44 402.62 89.44 C 402.62 88.48 402.62 87.52 402.62 86.56 C 399.24 86.56 395.87 86.56 392.50 86.56 M 423.81 86.56 C 423.81 87.28 423.81 88.72 423.81 89.44 C 427.19 89.44 430.56 89.44 433.94 89.44 C 433.94 88.72 433.94 87.28 433.94 86.56 C 430.56 86.56 427.19 86.56 423.81 86.56 Z" />
<path fill="#231f20" opacity="1.00" d=" M 197.11 50.12 C 202.24 42.66 212.79 40.89 220.91 43.92 C 223.76 45.07 226.59 46.98 227.58 50.04 C 217.43 50.33 207.27 50.17 197.11 50.12 Z" />
<path fill="#231f20" opacity="1.00" d=" M 299.38 43.58 C 305.12 42.16 312.32 42.84 316.16 47.86 C 319.80 52.56 317.99 60.10 312.64 62.69 C 305.77 66.29 294.78 65.14 291.55 57.16 C 289.20 51.36 293.43 44.73 299.38 43.58 Z" />
<path fill="#231f20" opacity="1.00" d=" M 447.02 50.13 C 452.05 42.77 462.33 40.97 470.38 43.76 C 473.39 44.88 476.44 46.82 477.50 50.03 C 467.35 50.34 457.18 50.16 447.02 50.13 Z" />
<path fill="#231f20" opacity="1.00" d=" M 340.65 86.59 C 343.65 83.14 349.82 82.59 352.62 86.57 C 348.63 86.75 344.64 86.74 340.65 86.59 Z" />
<path fill="#231f20" opacity="1.00" d=" M 409.03 90.16 C 411.46 88.66 414.44 88.90 417.18 89.05 C 416.63 90.60 415.87 92.49 413.92 92.51 C 412.12 92.69 408.64 92.84 409.03 90.16 Z" />
<path fill="#231f20" opacity="1.00" d=" M 460.47 89.77 C 462.68 88.69 465.28 89.04 467.66 88.81 C 467.76 92.77 462.86 93.50 460.14 91.83 C 459.41 91.18 459.52 90.13 460.47 89.77 Z" />
</g>
</svg>
